[
    {
        "notify_event": null,
        "condition_component_duration": null,
        "device_id": "24a16074d0e4",
        "action_component_type": null,
        "end_time": null,
        "device_rule_component_id": null,
        "condition_component_type": null,
        "schedule_name": null,
        "host_type": "host.outlet",
        "device_schedule_component_id": null,
        "rule_id": null,
        "start_time": null,
        "event_id": null,
        "end_time_action": null,
        "site_id": "bce8cd5e-3037-47c3-9dd8-3f347165f2cd",
        "start_time_action": null,
        "condition_component_limit": null,
        "days": null,
        "location": "Kitchen",
        "condition_component_direction": null,
        "schedule_id": null
    }
]