[
  {
    "device_id": "d8a01d5a688c",
    "function_id": "123",
    "day": "Monday",
    "schedule_name": "",
    "start_time": "3:30",
    "start_time_action": "",
    "end_time": "time.sunrise",
    "end_time_action": "",
    "event_id": "123"
  }
]