{
    "name":"My New Rule",
    "type":"automationType.rule",
    "condition":{
        "type":"condition.powerToggled",
        "componentId":"0",
        "direction":"power.on"
    },
    "actions":[
        {
            "type":"action.notifyEvent"
        }
    ]
}