{
    "deviceId": "500291a14ce4",
    "hostId": "Jkj78JCljIahizKlcBvw",
    "hostType": "host.outlet",
    "isConnected": true,
    "room": "Office",
    "version": "1.2.32",
    "components": [
        {
            "functions": [
                "power",
                "toggle"
            ],
            "id": "0",
            "name": "outlet 7"
        },
        {
            "functions": [
                "power"
            ],
            "id": "1",
            "name": "outlet 7"
        },
        {
            "id": "temp",
            "functions": [
                "temperature"
            ]
        },
        {
            "id": "humi",
            "functions": [
                "humidity"
            ]
        }
    ],
    "state": {
        "0": {
            "toggle": "on",
            "power": 0
        },
        "1": {
            "power": 0
        },
        "temp": {
            "temperature": 20.72495,
            "calib": 0,
            "max": 22,
            "min": 19,
            "avg": 20.56109,
            "slope": 0,
            "stable": true
        },
        "humi": {
            "humidity": 36.81687,
            "max": 37.07856,
            "min": 29,
            "avg": 34.06404,
            "slope": 0.015259
        }
    }
}