{
    "success": true,
    "token_type": "Bearer",
    "access_token": "eyJhbGciOiJIUzI1NiIsInR5cCI6IkpXVCJ9.eyJ1c2VySWQiOiI3NzdiYjQzMC1hZGVmLTQxYmUtYjExYS00YTE0MDgyY2RkNWUiLCJjbGllbnRJZCI6IkxvY2FsIiwiaWF0IjoxNjIxNTgwMDY3LCJleHAiOjE2MjE2MjMyNjd9.YbbyWg7S5DeV4ODzs_L6IXkJTFQHEc4SDshpeQHfO3A",
    "expires_in": 43200
}