[
  {
    "siteId": "2f3d52e3-328b-4b25-9698-8c8da97504a6",
    "devices": [
      {
        "isRegistered": true,
        "host": {
          "components": [
            {
              "name": "Lamp",
              "functions": [
                "power",
                "toggle"
              ],
              "id": "0"
            },
            {
              "name": "Toaster",
              "functions": [
                "power"
              ],
              "id": "1"
            }
          ],
          "orientation": 0,
          "id": "jytDcGblbJd8Hnym38oG",
          "type": "outlet"
        },
        "isConnected": true,
        "insert": {
          "isLegacy": false,
          "type": "TEMP HUMI",
          "version": "1.1.11",
          "availableVersion": "1.1.7",
          "updateAvailable": true,
          "components": [
            {
              "id": "temp",
              "functions": [
                "temperature"
              ]
            },
            {
              "id": "humi",
              "functions": [
                "humidity"
              ]
            }
          ]
        },
        "room": "Family Room",
        "deviceId": "500291a26d7c"
      }
    ]
  }
]