[
  {
    "device_id": "",
    "stability": 0,
    "quality": 1,
    "eco2": 500,
    "eco2_max": 1222.361,
    "eco2_min": 400,
    "eco2_avg": 605.5477,
    "eco2_slope": 0,
    "tvoc": 0.5,
    "tvoc_max": 2.174439,
    "tvoc_min": 0.342646,
    "tvoc_avg": 0.740393,
    "tvoc_slope": 0,
    "air_quality": 25,
    "aq_max": 122.2361,
    "aq_min": 0,
    "aq_avg": 44.4241,
    "aq_slope": 0,
    "gas": 577017,
    "comp_gas": 6.351204
  }
]