[
  {
    "deviceId":"1",
    "siteId": "1",
    "location":"bedroom",
    "hostType": "switch",
    "componentId": "",
    "componentName": "",
    "componentValue":"",
    "datetime": "2021-05-01",
    "isToggle": 1      
  }
]